…
## The following objects are masked from 'package:stats':
## 
##     filter, lag

## The following objects are masked from 'package:base':
## 
##     intersect, setdiff, setequal, union

simdata_agg <- simdata %>%
  group_by(x_rd, group, facet) %>%
  summarise(y = mean(y))
simdata_agg 

## # A tibble: 960 x 4
## # Groups:   x_rd, group [?]
##     x_rd group facet            y
##    <dbl> <dbl> <int>        <dbl>
##  1 0.032     1     1 -0.032843596
##  2 0.032     1     2  0.050348568
##  3 0.032     1     3  0.149482435
##  4 0.032     2     1  0.007618005
##  5 0.032     2     2  0.011283906
##  6 0.033     1     1 -0.285390933
##  7 0.033     1     2 -0.063111885
##  8 0.033     1     3 -0.139241019
##  9 0.033     2     1 -0.145610963
## 10 0.033     2     2 -0.154409865
## # ... with 950 more rows
…
