…
sim_reg(fixed = fixed, fixed_param = fixed_param, random = random,
        random_param = random_param, cov_param = cov_param, k = NULL, n = n, p = p,
        error_var = error_var, with_err_gen = with_err_gen, 
        data_str = data_str, fact_vars = fact_vars)

## # A tibble: 250 x 14
##    X.Intercept.       income act_o factor.grad_degree_f.2      income1
##           <dbl>        <dbl> <dbl>                  <dbl>        <dbl>
##  1            1 -0.772872289    28                      1 -0.772872289
##  2            1  0.416096972     7                      0  0.416096972
##  3            1 -0.022392623     8                      1 -0.022392623
##  4            1 -0.141803138     1                      0 -0.141803138
##  5            1  0.010888225    21                      0  0.010888225
##  6            1 -0.007103202    17                      0 -0.007103202
##  7            1 -0.612343775    22                      0 -0.612343775
##  8            1  0.203837800    30                      0  0.203837800
##  9            1  1.949610181    21                      1  1.949610181
## 10            1  1.003149409    31                      1  1.003149409
## # ... with 240 more rows, and 9 more variables: act_o1 <dbl>,
## #   grad_degree_f <dbl>, b0 <dbl>, Fbeta <dbl>, randEff <dbl>, err <dbl>,
## #   sim_data <dbl>, withinID <int>, clustID <int>
…
sim_glm(fixed = fixed, fixed_param = fixed_param, random = random,
        random_param = random_param, cov_param = cov_param, k = NULL, n = n, p = p,
        data_str = data_str, fact_vars = fact_vars, outcome_type = 'logistic')

## # A tibble: 250 x 15
##    X.Intercept.      income act_o factor.grad_degree_f.2     income1
##           <dbl>       <dbl> <dbl>                  <dbl>       <dbl>
##  1            1  0.05600817     6                      1  0.05600817
##  2            1  0.56322606    24                      1  0.56322606
##  3            1 -0.11876126     1                      0 -0.11876126
##  4            1  0.79058375    11                      1  0.79058375
##  5            1  2.45043806    21                      0  2.45043806
##  6            1  1.77433262    10                      1  1.77433262
##  7            1 -1.56422506     3                      1 -1.56422506
##  8            1 -1.70684183    11                      1 -1.70684183
##  9            1 -0.79035323    31                      0 -0.79035323
## 10            1  0.03784287     7                      0  0.03784287
## # ... with 240 more rows, and 10 more variables: act_o1 <dbl>,
## #   grad_degree_f <dbl>, b0 <dbl>, Fbeta <dbl>, randEff <dbl>,
## #   logistic <dbl>, prob <dbl>, sim_data <dbl>, withinID <int>,
## #   clustID <int>
…
pow_tail <- 2
replicates <- 50
terms_vary <- list(n = c(20, 40, 60, 80, 100), 
                   error_var = c(5, 10, 20))

power_out <- sim_pow(fixed = fixed, fixed_param = fixed_param, cov_param = cov_param,
                     n = n, error_var = error_var, with_err_gen = with_err_gen, 
                     data_str = "single", pow_param = pow_param, alpha = alpha,
                     pow_dist = pow_dist, pow_tail = pow_tail, 
                     replicates = replicates, terms_vary = terms_vary, 
                     raw_power = FALSE)

power_out

## # A tibble: 60 x 8
## # Groups:   var, n [?]
##            var     n error_var avg_test_stat sd_test_stat power num_reject
##         <fctr> <dbl>     <dbl>         <dbl>        <dbl> <dbl>      <dbl>
##  1 (Intercept)    20         5     1.1585985    1.1659626  0.10          5
##  2 (Intercept)    20        10     0.9295801    0.8381110  0.04          2
##  3 (Intercept)    20        20     0.7667661    0.5516210  0.00          0
##  4 (Intercept)    40         5     1.8054688    1.0987028  0.24         12
##  5 (Intercept)    40        10     1.0318538    0.7035785  0.02          1
##  6 (Intercept)    40        20     0.9198477    0.7038914  0.02          1
##  7 (Intercept)    60         5     2.0447040    0.9094806  0.30         15
##  8 (Intercept)    60        10     1.1719409    0.7894543  0.08          4
##  9 (Intercept)    60        20     0.8776733    0.7000668  0.02          1
## 10 (Intercept)    80         5     2.0065774    1.0137946  0.24         12
## # ... with 50 more rows, and 1 more variables: num_repl <dbl>
…
